<?xml version="1.0" encoding="utf-8"?>
<!-- Generator: Adobe Illustrator 22.1.0, SVG Export Plug-In . SVG Version: 6.00 Build 0)  -->
<svg version="1.1" id="Layer_1" xmlns="http://www.w3.org/2000/svg" xmlns:xlink="http://www.w3.org/1999/xlink" x="0px" y="0px"
	 viewBox="0 0 595.3 841.9" style="enable-background:new 0 0 595.3 841.9;" xml:space="preserve">
<style type="text/css">
	.st0{fill:#999999;}
	.st1{fill:#FEFEFE;}
</style>
<circle class="st0" cx="303.1" cy="456" r="255.6"/>
<path class="st1" d="M445.4,295c-2,0.3-3.9,1-5.8,1.5c-63.1,19.2-126.1,38.5-189.2,57.5c-15.1,4.6-24.7,14-29.7,29
	c-19.1,57.9-38.5,115.7-57.8,173.5c-5.2,15.6-10.5,31.3-15.5,47c-2.3,7.3,2.1,13.6,9.4,13.7c2,0.2,4-0.7,6-1.5
	c66.9-26.5,133.7-53,200.6-79.5c16.7-6.6,27.7-18.4,33.3-35.5c16.7-51.5,33.6-102.9,50.3-154.3c3.9-12,8-24,11.6-36.1
	C461.4,301.2,454.7,293.8,445.4,295z M303.3,490.2c-18.7,0.1-33.7-14.8-33.8-33.5c-0.1-18.7,14.8-33.7,33.5-33.8
	c18.7-0.1,33.7,14.8,33.8,33.5C336.9,475.1,322,490.1,303.3,490.2z"/>
</svg>
